{
  "family": "${serviceName}",
  "containerDefinitions": [
    {
      "image": "%IMAGE_URI%",
      "name": "${serviceName}",
      "cpu": 256,
      "memory": 768,
      "essential": true,
      "portMappings": [
        {
          "containerPort": 8081,
          "hostPort": 0
        }
      ],
      "environment": [
        {
          "name": "AWS_LB_URL",
          "value": "http://stb-api.prd.aws.sothebys.com"
        },
        {
          "name": "SPRING_BOOT_ADMIN_URL",
          "value": "http://stb-api.prd.aws.sothebys.com/spring-boot-admin-server"
        },
        {
          "name": "SPRING_PROFILES_ACTIVE",
          "value": "prd,cloud"
        },
        {
          "name": "CONFIG_SERVER_URI",
          "value": "http://stb-api.prd.aws.sothebys.com/config-server"
        },
        {
          "name": "CONFIG_SERVER_LABEL",
          "value": "master"
        },
        {
          "name": "TAKIPI_SECRET_KEY",
          "value": "S24685#niEMStBqu15qu0KI#eRCwdGvqjKV61dNSVTspImaNULcaEVgRkKM9fX63X3I=#bb4c"
        },
        {
          "name": "TAKIPI_MACHINE_NAME",
          "value": "ecs-stb-prd"
        }
      ],
      "logConfiguration": {
        "logDriver": "awslogs",
        "options": {
          "awslogs-group": "${serviceName}-v1-prd",
          "awslogs-region": "us-east-1",
          "awslogs-stream-prefix": "${serviceName}-v1-prd"
        }
      }
    }
  ]
}
